-0.028132
-0.035771
0.033788
-0.019267
-0.001052
0.017974
0.016813
0.032208
-0.017084
0.028102
0.040567
-0.003494
0.001966
-0.031160
-0.013413
-0.037833
-0.023523
0.007651
-0.008370
-0.024395
-0.009883
0.025791
-0.000428
0.036424
0.026778
0.015828
0.024602
0.027243
0.029541
-0.014048
0.011436
-0.027803
0.020859
-0.041244
0.028707
-0.002843
-0.032716
-0.029163
0.039372
-0.036920
0.003636
-0.021239
0.008345
0.020144
0.012178
-0.034153
-0.005175
0.014907
-0.015904
0.022608
-0.020631
-0.009017
-0.000093
-0.007452
-0.037723
0.041141
0.039902
-0.013875
0.004836
-0.009418
0.041209
-0.008374
0.004250
0.016777
